{
    "hi": "hello",
    "three": 3,
    "obj": {
        "obj1": 1,
        "obj2": 2
    },
    "arr": [
        1,
        2,
        3
    ],
    "nessled": {
        "hello": {
            "one": 1,
            "two": 2
        },
        "hi": {
            "one": 1,
            "two": 2
        }
    },
    "configVersion": 1234
}